<?xml version="1.0" encoding="utf-8"?>
<!-- Generated by IcoMoon.io -->
<!DOCTYPE svg PUBLIC "-//W3C//DTD SVG 1.1//EN" "http://www.w3.org/Graphics/SVG/1.1/DTD/svg11.dtd">
<svg version="1.1" xmlns="http://www.w3.org/2000/svg" xmlns:xlink="http://www.w3.org/1999/xlink" width="32" height="32" viewBox="0 0 32 32">
<g id="icomoon-ignore">
</g>
<path d="M12.040 28.019l-12.038-12.038 4.974-4.973 12.038 12.039-4.974 4.973zM32 8.063l-19.921 19.958-4.973-4.974 19.92-19.957 4.974 4.973z" fill="#000000"></path>
</svg>
