<?xml version="1.0" encoding="utf-8"?>
<!-- Generated by IcoMoon.io -->
<!DOCTYPE svg PUBLIC "-//W3C//DTD SVG 1.1//EN" "http://www.w3.org/Graphics/SVG/1.1/DTD/svg11.dtd">
<svg version="1.1" xmlns="http://www.w3.org/2000/svg" xmlns:xlink="http://www.w3.org/1999/xlink" width="32" height="32" viewBox="0 0 32 32">
<g id="icomoon-ignore">
</g>
<path d="M18 16h-13.69l-4.31-4 4.356-4h13.644l-0.001 8zM14.006 4h13.542l4.388 4-4.384 4-7.548 0.008 0.001-6-5.994-0.008zM18 0h4l-0.021 2.021h-4l0.021-2.021zM22.003 32h-4.002l-0.001-14h2.004l0.002-4h1.995l0.002 18z" fill="#000000"></path>
</svg>
